{
    "count": 468,
    "next": "https://lldev.thespacedevs.com/2.3.0/launches/?amp%3Bmode=detailed&limit=1&offset=1",
    "previous": null,
    "results": [{
        "id": "e2d43a8e-6b36-40ac-a671-de35edca331a",
        "url": "https://lldev.thespacedevs.com/2.3.0/launches/e2d43a8e-6b36-40ac-a671-de35edca331a/",
        "name": "Long March 4B | Gaofen-11-05",
        "response_mode": "normal",
        "slug": "long-march-4b-gaofen-11-05",
        "launch_designator": "2024-130",
        "status": {
            "id": 3,
            "name": "Launch Successful",
            "abbrev": "Success",
            "description": "The launch vehicle successfully inserted its payload(s) into the target orbit(s)."
        },
        "last_updated": "2024-07-19T21:13:31Z",
        "net": "2024-07-19T03:03:00Z",
        "net_precision": {
            "id": 1,
            "name": "Minute",
            "abbrev": "MIN",
            "description": "The T-0 is accurate to the minute."
        },
        "window_end": "2024-07-19T03:43:00Z",
        "window_start": "2024-07-19T02:54:00Z",
        "image": {
            "id": 2125,
            "name": "CZ-4B liftoff from LC-9 (Gaofen-11-05)",
            "image_url": "https://thespacedevs-prod.nyc3.digitaloceanspaces.com/media/images/cz-4b_liftoff__image_20240719064703.jpeg",
            "thumbnail_url": "https://thespacedevs-prod.nyc3.digitaloceanspaces.com/media/images/cz-4b_liftoff__image_thumbnail_20240719064704.jpeg",
            "credit": "中国航天科技集团",
            "license": {
                "id": 1,
                "name": "Unknown",
                "priority": 9,
                "link": null
            },
            "single_use": false,
            "variants": []
        },
        "infographic": null,
        "probability": null,
        "weather_concerns": null,
        "failreason": "",
        "hashtag": null,
        "launch_service_provider": {
            "response_mode": "list",
            "id": 88,
            "url": "https://lldev.thespacedevs.com/2.3.0/agencies/88/",
            "name": "China Aerospace Science and Technology Corporation",
            "abbrev": "CASC",
            "type": {
                "id": 1,
                "name": "Government"
            }
        },
        "rocket": {
            "id": 8282,
            "configuration": {
                "response_mode": "list",
                "id": 10,
                "url": "https://lldev.thespacedevs.com/2.3.0/launcher_configurations/10/",
                "name": "Long March 4B",
                "families": [{
                    "response_mode": "list",
                    "id": 106,
                    "name": "Long March"
                }, {
                    "response_mode": "list",
                    "id": 111,
                    "name": "Long March 4"
                }],
                "full_name": "Long March 4B",
                "variant": "B"
            }
        },
        "mission": {
            "id": 6863,
            "name": "Gaofen-11-05",
            "type": "Earth Science",
            "description": "Gaofen is a series of civilian Earth observation satellites developed and launched for the China High-definition Earth Observation System (CHEOS), a state-sponsored programme aimed to develop a near-real time, all-weather, global surveillance network consisting of satellite, near-space (stratosphere) airships, and aerial observation platforms.",
            "image": null,
            "orbit": {
                "id": 17,
                "name": "Sun-Synchronous Orbit",
                "abbrev": "SSO",
                "celestial_body": {
                    "response_mode": "list",
                    "id": 1,
                    "name": "Earth"
                }
            },
            "agencies": [],
            "info_urls": [],
            "vid_urls": []
        },
        "pad": {
            "id": 25,
            "url": "https://lldev.thespacedevs.com/2.3.0/pads/25/",
            "active": true,
            "agencies": [],
            "name": "Launch Complex 9",
            "image": {
                "id": 2125,
                "name": "CZ-4B liftoff from LC-9 (Gaofen-11-05)",
                "image_url": "https://thespacedevs-prod.nyc3.digitaloceanspaces.com/media/images/cz-4b_liftoff__image_20240719064703.jpeg",
                "thumbnail_url": "https://thespacedevs-prod.nyc3.digitaloceanspaces.com/media/images/cz-4b_liftoff__image_thumbnail_20240719064704.jpeg",
                "credit": "中国航天科技集团",
                "license": {
                    "id": 1,
                    "name": "Unknown",
                    "priority": 9,
                    "link": null
                },
                "single_use": false,
                "variants": []
            },
            "description": "",
            "info_url": null,
            "wiki_url": null,
            "map_url": "https://www.google.com/maps?q=38.863128,111.589567",
            "latitude": 38.863128,
            "longitude": 111.589567,
            "country": {
                "id": 6,
                "name": "China",
                "alpha_2_code": "CN",
                "alpha_3_code": "CHN",
                "nationality_name": "Chinese",
                "nationality_name_composed": "Sino"
            },
            "map_image": "https://thespacedevs-prod.nyc3.digitaloceanspaces.com/media/map_images/pad_25_20200803143501.jpg",
            "total_launch_count": 76,
            "orbital_launch_attempt_count": 76,
            "fastest_turnaround": "P16DT20H3M",
            "location": {
                "response_mode": "normal",
                "id": 19,
                "url": "https://lldev.thespacedevs.com/2.3.0/locations/19/",
                "name": "Taiyuan Satellite Launch Center, People's Republic of China",
                "celestial_body": {
                    "response_mode": "normal",
                    "id": 1,
                    "name": "Earth",
                    "type": {
                        "id": 1,
                        "name": "Planet"
                    },
                    "diameter": 12742000.0,
                    "mass": 5.972168e+24,
                    "gravity": 9.80655,
                    "length_of_day": "1 00:00:00",
                    "atmosphere": true,
                    "image": {
                        "id": 2040,
                        "name": "Earth (Apollo 17)",
                        "image_url": "https://thespacedevs-prod.nyc3.digitaloceanspaces.com/media/images/earth_2528apol_image_20240402194304.jpeg",
                        "thumbnail_url": "https://thespacedevs-prod.nyc3.digitaloceanspaces.com/media/images/earth_2528apol_image_thumbnail_20240402194305.jpeg",
                        "credit": "NASA",
                        "license": {
                            "id": 4,
                            "name": "NASA Image and Media Guidelines",
                            "priority": 0,
                            "link": "https://www.nasa.gov/nasa-brand-center/images-and-media/"
                        },
                        "single_use": true,
                        "variants": []
                    },
                    "description": "Earth is the third planet from the Sun and the only astronomical object known to harbor life.",
                    "wiki_url": "https://en.wikipedia.org/wiki/Earth",
                    "total_attempted_launches": 7207,
                    "successful_launches": 6662,
                    "failed_launches": 545,
                    "total_attempted_landings": 1143,
                    "successful_landings": 1098,
                    "failed_landings": 45
                },
                "active": true,
                "country": {
                    "id": 6,
                    "name": "China",
                    "alpha_2_code": "CN",
                    "alpha_3_code": "CHN",
                    "nationality_name": "Chinese",
                    "nationality_name_composed": "Sino"
                },
                "description": "The Taiyuan Satellite Launch Center is a People's Republic of China space and defense launch facility. It is situated in Kelan County, Xinzhou, Shanxi Province and is the second of four launch sites having been founded in March 1966 and coming into full operation in 1968.",
                "image": {
                    "id": 1369,
                    "name": "[AUTO] Long March 2D | 6 x Jilin-1, Qilu-2/3 & others - image",
                    "image_url": "https://thespacedevs-prod.nyc3.digitaloceanspaces.com/media/images/long2520march_image_20230907134308.jpeg",
                    "thumbnail_url": "https://thespacedevs-prod.nyc3.digitaloceanspaces.com/media/images/255bauto255d__image_thumbnail_20240305192538.jpeg",
                    "credit": null,
                    "license": {
                        "id": 1,
                        "name": "Unknown",
                        "priority": 9,
                        "link": null
                    },
                    "single_use": true,
                    "variants": []
                },
                "map_image": "https://thespacedevs-prod.nyc3.digitaloceanspaces.com/media/map_images/location_19_20200803142421.jpg",
                "longitude": 111.608,
                "latitude": 38.8491,
                "timezone_name": "Asia/Shanghai",
                "total_launch_count": 142,
                "total_landing_count": 0
            }
        },
        "webcast_live": false,
        "program": [],
        "orbital_launch_attempt_count": 6723,
        "location_launch_attempt_count": 129,
        "pad_launch_attempt_count": 73,
        "agency_launch_attempt_count": 475,
        "orbital_launch_attempt_count_year": 134,
        "location_launch_attempt_count_year": 5,
        "pad_launch_attempt_count_year": 2,
        "agency_launch_attempt_count_year": 23
    }]
}