{
    "count": 7555,
    "next": "https://lldev.thespacedevs.com/2.3.0/launches/?limit=1&mode=detailed&offset=10",
    "previous": null,
    "results": [{
        "id": "e3df2ecd-c239-472f-95e4-2b89b4f75800",
        "url": "https://ll.thespacedevs.com/2.3.0/launches/e3df2ecd-c239-472f-95e4-2b89b4f75800/",
        "name": "Sputnik 8K74PS | Sputnik 1",
        "response_mode": "list",
        "slug": "sputnik-8k74ps-sputnik-1",
        "launch_designator": "1957-001",
        "status": {
            "id": 3,
            "name": "Launch Successful",
            "abbrev": "Success",
            "description": "The launch vehicle successfully inserted its payload(s) into the target orbit(s)."
        },
        "last_updated": "2024-03-17T19:17:35Z",
        "net": "1957-10-04T19:28:34Z",
        "net_precision": null,
        "window_end": "1957-10-04T19:28:34Z",
        "window_start": "1957-10-04T19:28:34Z",
        "image": {
            "id": 1844,
            "name": "[AUTO] Sputnik 8K74PS - image",
            "image_url": "https://thespacedevs-prod.nyc3.digitaloceanspaces.com/media/images/sputnik_8k74ps_image_20210830185541.jpg",
            "thumbnail_url": "https://thespacedevs-prod.nyc3.digitaloceanspaces.com/media/images/255bauto255d__image_thumbnail_20240305193923.jpeg",
            "credit": null,
            "license": {
                "id": 1,
                "name": "Unknown",
                "priority": 9,
                "link": null
            },
            "single_use": true,
            "variants": []
        },
        "infographic": null
    }, {
        "id": "f8c9f344-a6df-4f30-873a-90fe3a7840b3",
        "url": "https://ll.thespacedevs.com/2.3.0/launches/f8c9f344-a6df-4f30-873a-90fe3a7840b3/",
        "name": "Sputnik 8K74PS | Sputnik 2",
        "response_mode": "list",
        "slug": "sputnik-8k74ps-sputnik-2",
        "launch_designator": "1957-002",
        "status": {
            "id": 3,
            "name": "Launch Successful",
            "abbrev": "Success",
            "description": "The launch vehicle successfully inserted its payload(s) into the target orbit(s)."
        },
        "last_updated": "2023-06-14T03:48:36Z",
        "net": "1957-11-03T02:30:00Z",
        "net_precision": null,
        "window_end": "1957-11-03T02:30:00Z",
        "window_start": "1957-11-03T02:30:00Z",
        "image": {
            "id": 1844,
            "name": "[AUTO] Sputnik 8K74PS - image",
            "image_url": "https://thespacedevs-prod.nyc3.digitaloceanspaces.com/media/images/sputnik_8k74ps_image_20210830185541.jpg",
            "thumbnail_url": "https://thespacedevs-prod.nyc3.digitaloceanspaces.com/media/images/255bauto255d__image_thumbnail_20240305193923.jpeg",
            "credit": null,
            "license": {
                "id": 1,
                "name": "Unknown",
                "priority": 9,
                "link": null
            },
            "single_use": true,
            "variants": []
        },
        "infographic": null
    }, {
        "id": "535c1a09-97c8-4f96-bb64-6336d4bcb1fb",
        "url": "https://ll.thespacedevs.com/2.3.0/launches/535c1a09-97c8-4f96-bb64-6336d4bcb1fb/",
        "name": "Vanguard | Vanguard",
        "response_mode": "list",
        "slug": "vanguard-vanguard",
        "launch_designator": null,
        "status": {
            "id": 4,
            "name": "Launch Failure",
            "abbrev": "Failure",
            "description": "Either the launch vehicle did not reach orbit, or the payload(s) failed to separate."
        },
        "last_updated": "2023-06-14T17:43:00Z",
        "net": "1957-12-06T16:44:35Z",
        "net_precision": null,
        "window_end": "1957-12-06T16:44:35Z",
        "window_start": "1957-12-06T16:44:35Z",
        "image": {
            "id": 2067,
            "name": "Vanguard 1 on Pad LC-18A.",
            "image_url": "https://thespacedevs-prod.nyc3.digitaloceanspaces.com/media/images/vanguard_1_on_p_image_20240411114304.jpeg",
            "thumbnail_url": "https://thespacedevs-prod.nyc3.digitaloceanspaces.com/media/images/vanguard_1_on_p_image_thumbnail_20240411114305.jpeg",
            "credit": "NASA",
            "license": {
                "id": 4,
                "name": "NASA Image and Media Guidelines",
                "priority": 0,
                "link": "https://www.nasa.gov/nasa-brand-center/images-and-media/"
            },
            "single_use": true,
            "variants": []
        },
        "infographic": null
    }, {
        "id": "1b9e28d0-c531-44b0-9b37-244e62a6d3f4",
        "url": "https://ll.thespacedevs.com/2.3.0/launches/1b9e28d0-c531-44b0-9b37-244e62a6d3f4/",
        "name": "Juno-I | Explorer 1",
        "response_mode": "list",
        "slug": "juno-i-explorer-1",
        "launch_designator": "1958-001",
        "status": {
            "id": 3,
            "name": "Launch Successful",
            "abbrev": "Success",
            "description": "The launch vehicle successfully inserted its payload(s) into the target orbit(s)."
        },
        "last_updated": "2023-06-14T17:40:22Z",
        "net": "1958-02-01T03:47:56Z",
        "net_precision": null,
        "window_end": "1958-02-01T03:47:56Z",
        "window_start": "1958-02-01T03:47:56Z",
        "image": {
            "id": 2070,
            "name": "Juno I on the pad (Explorer I)",
            "image_url": "https://thespacedevs-prod.nyc3.digitaloceanspaces.com/media/images/juno_i_on_the_p_image_20240411120216.jpeg",
            "thumbnail_url": "https://thespacedevs-prod.nyc3.digitaloceanspaces.com/media/images/juno_i_on_the_p_image_thumbnail_20240411120216.jpeg",
            "credit": "NASA",
            "license": {
                "id": 4,
                "name": "NASA Image and Media Guidelines",
                "priority": 0,
                "link": "https://www.nasa.gov/nasa-brand-center/images-and-media/"
            },
            "single_use": true,
            "variants": []
        },
        "infographic": null
    }, {
        "id": "48bc7deb-b2e1-46c2-ab63-0ce00fbd192b",
        "url": "https://ll.thespacedevs.com/2.3.0/launches/48bc7deb-b2e1-46c2-ab63-0ce00fbd192b/",
        "name": "Vanguard | Vanguard",
        "response_mode": "list",
        "slug": "vanguard-vanguard-2",
        "launch_designator": null,
        "status": {
            "id": 4,
            "name": "Launch Failure",
            "abbrev": "Failure",
            "description": "Either the launch vehicle did not reach orbit, or the payload(s) failed to separate."
        },
        "last_updated": "2023-06-14T17:42:59Z",
        "net": "1958-02-05T07:33:00Z",
        "net_precision": null,
        "window_end": "1958-02-05T07:33:00Z",
        "window_start": "1958-02-05T07:33:00Z",
        "image": {
            "id": 2067,
            "name": "Vanguard 1 on Pad LC-18A.",
            "image_url": "https://thespacedevs-prod.nyc3.digitaloceanspaces.com/media/images/vanguard_1_on_p_image_20240411114304.jpeg",
            "thumbnail_url": "https://thespacedevs-prod.nyc3.digitaloceanspaces.com/media/images/vanguard_1_on_p_image_thumbnail_20240411114305.jpeg",
            "credit": "NASA",
            "license": {
                "id": 4,
                "name": "NASA Image and Media Guidelines",
                "priority": 0,
                "link": "https://www.nasa.gov/nasa-brand-center/images-and-media/"
            },
            "single_use": true,
            "variants": []
        },
        "infographic": null
    }, {
        "id": "896e8af6-d256-4a5b-ab15-2f25c84e90e3",
        "url": "https://ll.thespacedevs.com/2.3.0/launches/896e8af6-d256-4a5b-ab15-2f25c84e90e3/",
        "name": "Juno-I | Explorer 2",
        "response_mode": "list",
        "slug": "juno-i-explorer-2",
        "launch_designator": null,
        "status": {
            "id": 4,
            "name": "Launch Failure",
            "abbrev": "Failure",
            "description": "Either the launch vehicle did not reach orbit, or the payload(s) failed to separate."
        },
        "last_updated": "2023-06-14T17:40:22Z",
        "net": "1958-03-05T18:27:57Z",
        "net_precision": null,
        "window_end": "1958-03-05T18:27:57Z",
        "window_start": "1958-03-05T18:27:57Z",
        "image": {
            "id": 2070,
            "name": "Juno I on the pad (Explorer I)",
            "image_url": "https://thespacedevs-prod.nyc3.digitaloceanspaces.com/media/images/juno_i_on_the_p_image_20240411120216.jpeg",
            "thumbnail_url": "https://thespacedevs-prod.nyc3.digitaloceanspaces.com/media/images/juno_i_on_the_p_image_thumbnail_20240411120216.jpeg",
            "credit": "NASA",
            "license": {
                "id": 4,
                "name": "NASA Image and Media Guidelines",
                "priority": 0,
                "link": "https://www.nasa.gov/nasa-brand-center/images-and-media/"
            },
            "single_use": true,
            "variants": []
        },
        "infographic": null
    }, {
        "id": "74d39bb8-34a6-4a8b-8554-d2d3ec22aee6",
        "url": "https://ll.thespacedevs.com/2.3.0/launches/74d39bb8-34a6-4a8b-8554-d2d3ec22aee6/",
        "name": "Vanguard | Vanguard",
        "response_mode": "list",
        "slug": "vanguard-vanguard-3",
        "launch_designator": "1958-002",
        "status": {
            "id": 3,
            "name": "Launch Successful",
            "abbrev": "Success",
            "description": "The launch vehicle successfully inserted its payload(s) into the target orbit(s)."
        },
        "last_updated": "2023-06-14T17:42:59Z",
        "net": "1958-03-17T12:15:41Z",
        "net_precision": null,
        "window_end": "1958-03-17T12:15:41Z",
        "window_start": "1958-03-17T12:15:41Z",
        "image": {
            "id": 2067,
            "name": "Vanguard 1 on Pad LC-18A.",
            "image_url": "https://thespacedevs-prod.nyc3.digitaloceanspaces.com/media/images/vanguard_1_on_p_image_20240411114304.jpeg",
            "thumbnail_url": "https://thespacedevs-prod.nyc3.digitaloceanspaces.com/media/images/vanguard_1_on_p_image_thumbnail_20240411114305.jpeg",
            "credit": "NASA",
            "license": {
                "id": 4,
                "name": "NASA Image and Media Guidelines",
                "priority": 0,
                "link": "https://www.nasa.gov/nasa-brand-center/images-and-media/"
            },
            "single_use": true,
            "variants": []
        },
        "infographic": null
    }, {
        "id": "b4e501ff-083c-47d6-9ff0-63ec1bf035c3",
        "url": "https://ll.thespacedevs.com/2.3.0/launches/b4e501ff-083c-47d6-9ff0-63ec1bf035c3/",
        "name": "Juno-I | Explorer 3",
        "response_mode": "list",
        "slug": "juno-i-explorer-3",
        "launch_designator": "1958-003",
        "status": {
            "id": 3,
            "name": "Launch Successful",
            "abbrev": "Success",
            "description": "The launch vehicle successfully inserted its payload(s) into the target orbit(s)."
        },
        "last_updated": "2023-06-14T17:40:21Z",
        "net": "1958-03-26T17:38:01Z",
        "net_precision": null,
        "window_end": "1958-03-26T17:38:01Z",
        "window_start": "1958-03-26T17:38:01Z",
        "image": {
            "id": 2070,
            "name": "Juno I on the pad (Explorer I)",
            "image_url": "https://thespacedevs-prod.nyc3.digitaloceanspaces.com/media/images/juno_i_on_the_p_image_20240411120216.jpeg",
            "thumbnail_url": "https://thespacedevs-prod.nyc3.digitaloceanspaces.com/media/images/juno_i_on_the_p_image_thumbnail_20240411120216.jpeg",
            "credit": "NASA",
            "license": {
                "id": 4,
                "name": "NASA Image and Media Guidelines",
                "priority": 0,
                "link": "https://www.nasa.gov/nasa-brand-center/images-and-media/"
            },
            "single_use": true,
            "variants": []
        },
        "infographic": null
    }, {
        "id": "59d2de37-4c22-495f-8718-4b22f5f34ab7",
        "url": "https://ll.thespacedevs.com/2.3.0/launches/59d2de37-4c22-495f-8718-4b22f5f34ab7/",
        "name": "Sputnik 8A91 | D-1 1",
        "response_mode": "list",
        "slug": "sputnik-8a91-d-1-1",
        "launch_designator": null,
        "status": {
            "id": 4,
            "name": "Launch Failure",
            "abbrev": "Failure",
            "description": "Either the launch vehicle did not reach orbit, or the payload(s) failed to separate."
        },
        "last_updated": "2023-06-14T03:48:43Z",
        "net": "1958-04-27T07:00:35Z",
        "net_precision": null,
        "window_end": "1958-04-27T07:00:35Z",
        "window_start": "1958-04-27T07:00:35Z",
        "image": {
            "id": 1843,
            "name": "[AUTO] Sputnik 8A91 - image",
            "image_url": "https://thespacedevs-prod.nyc3.digitaloceanspaces.com/media/images/sputnik_8a91_image_20210830171943.png",
            "thumbnail_url": "https://thespacedevs-prod.nyc3.digitaloceanspaces.com/media/images/255bauto255d__image_thumbnail_20240305193921.png",
            "credit": null,
            "license": {
                "id": 1,
                "name": "Unknown",
                "priority": 9,
                "link": null
            },
            "single_use": true,
            "variants": []
        },
        "infographic": null
    }, {
        "id": "de282e74-e03b-411e-9633-2d1497629893",
        "url": "https://ll.thespacedevs.com/2.3.0/launches/de282e74-e03b-411e-9633-2d1497629893/",
        "name": "Vanguard | Vanguard",
        "response_mode": "list",
        "slug": "vanguard-vanguard-4",
        "launch_designator": null,
        "status": {
            "id": 4,
            "name": "Launch Failure",
            "abbrev": "Failure",
            "description": "Either the launch vehicle did not reach orbit, or the payload(s) failed to separate."
        },
        "last_updated": "2023-06-14T17:42:59Z",
        "net": "1958-04-29T02:53:00Z",
        "net_precision": null,
        "window_end": "1958-04-29T02:53:00Z",
        "window_start": "1958-04-29T02:53:00Z",
        "image": {
            "id": 2067,
            "name": "Vanguard 1 on Pad LC-18A.",
            "image_url": "https://thespacedevs-prod.nyc3.digitaloceanspaces.com/media/images/vanguard_1_on_p_image_20240411114304.jpeg",
            "thumbnail_url": "https://thespacedevs-prod.nyc3.digitaloceanspaces.com/media/images/vanguard_1_on_p_image_thumbnail_20240411114305.jpeg",
            "credit": "NASA",
            "license": {
                "id": 4,
                "name": "NASA Image and Media Guidelines",
                "priority": 0,
                "link": "https://www.nasa.gov/nasa-brand-center/images-and-media/"
            },
            "single_use": true,
            "variants": []
        },
        "infographic": null
    }]
}